%YAML 1.1
%TAG !u! tag:unity3d.com,2011:
--- !u!1045 &1
EditorBuildSettings:
  m_ObjectHideFlags: 0
  serializedVersion: 2
  m_Scenes:
  - enabled: 1
    path: Assets/Scenes/Scenes/Final.unity
    guid: d669b572148e1674aaa59c504ccb542f
  - enabled: 1
    path: Assets/Scenes/Scenes/Main.unity
    guid: 1120b49a3cc79cf44ace22c93c0be85b
  m_configObjects: {}
