%YAML 1.1
%TAG !u! tag:unity3d.com,2011:
--- !u!78 &1
TagManager:
  serializedVersion: 2
  tags:
  - subir
  - bajar
  - paredfalse
  - player
  - t1Ex
  - t1En
  - Doramion
  - DialogoAmpharos
  - DialogoGrovyle
  - DialogoOnyx
  - DialogoKangaskhan
  - t2En
  - Activador
  - EntradaDungeon
  - moneda
  - Nidoking
  - puntoGuardado
  - bajar2
  layers:
  - Default
  - TransparentFX
  - Ignore Raycast
  - 
  - Water
  - UI
  - 
  - 
  - 
  - 
  - 
  - 
  - 
  - 
  - 
  - 
  - 
  - 
  - 
  - 
  - 
  - 
  - 
  - 
  - 
  - 
  - 
  - 
  - 
  - 
  - 
  - 
  m_SortingLayers:
  - name: Default
    uniqueID: 0
    locked: 0
