%YAML 1.1
%TAG !u! tag:unity3d.com,2011:
--- !u!74 &7400000
AnimationClip:
  m_ObjectHideFlags: 0
  m_CorrespondingSourceObject: {fileID: 0}
  m_PrefabInstance: {fileID: 0}
  m_PrefabAsset: {fileID: 0}
  m_Name: attackRight
  serializedVersion: 6
  m_Legacy: 0
  m_Compressed: 0
  m_UseHighQualityCurve: 1
  m_RotationCurves: []
  m_CompressedRotationCurves: []
  m_EulerCurves: []
  m_PositionCurves: []
  m_ScaleCurves: []
  m_FloatCurves: []
  m_PPtrCurves:
  - curve:
    - time: 0
      value: {fileID: 21300000, guid: f86f504d7d333c849bca87d6b82392fd, type: 3}
    - time: 0.04
      value: {fileID: 21300000, guid: a12cb762bf848864893c10a1890330d5, type: 3}
    - time: 0.08
      value: {fileID: 21300000, guid: f1006edd2fe2b464baaec74f995e6d0e, type: 3}
    - time: 0.12
      value: {fileID: 21300000, guid: a97a41939fa4b514cbe0f71b8793ae10, type: 3}
    - time: 0.16
      value: {fileID: 21300000, guid: 50d29765e8933ba409a1ccdb5335d6bd, type: 3}
    - time: 0.2
      value: {fileID: 21300000, guid: c13be3def6e642b4a998dfc9086796f3, type: 3}
    - time: 0.24
      value: {fileID: 21300000, guid: 1fb6bc5df6fa2c147bbe3cbcc927bcc7, type: 3}
    - time: 0.28
      value: {fileID: 21300000, guid: 350e024d41fe1454c916773fbf79bdbf, type: 3}
    - time: 0.32
      value: {fileID: 21300000, guid: ed6352dfd08462840ae81b20768d6386, type: 3}
    - time: 0.36
      value: {fileID: 21300000, guid: e584f1189fa2e1f4789487d37bbb03b3, type: 3}
    attribute: m_Sprite
    path: 
    classID: 212
    script: {fileID: 0}
  m_SampleRate: 25
  m_WrapMode: 0
  m_Bounds:
    m_Center: {x: 0, y: 0, z: 0}
    m_Extent: {x: 0, y: 0, z: 0}
  m_ClipBindingConstant:
    genericBindings:
    - serializedVersion: 2
      path: 0
      attribute: 0
      script: {fileID: 0}
      typeID: 212
      customType: 23
      isPPtrCurve: 1
    pptrCurveMapping:
    - {fileID: 21300000, guid: f86f504d7d333c849bca87d6b82392fd, type: 3}
    - {fileID: 21300000, guid: a12cb762bf848864893c10a1890330d5, type: 3}
    - {fileID: 21300000, guid: f1006edd2fe2b464baaec74f995e6d0e, type: 3}
    - {fileID: 21300000, guid: a97a41939fa4b514cbe0f71b8793ae10, type: 3}
    - {fileID: 21300000, guid: 50d29765e8933ba409a1ccdb5335d6bd, type: 3}
    - {fileID: 21300000, guid: c13be3def6e642b4a998dfc9086796f3, type: 3}
    - {fileID: 21300000, guid: 1fb6bc5df6fa2c147bbe3cbcc927bcc7, type: 3}
    - {fileID: 21300000, guid: 350e024d41fe1454c916773fbf79bdbf, type: 3}
    - {fileID: 21300000, guid: ed6352dfd08462840ae81b20768d6386, type: 3}
    - {fileID: 21300000, guid: e584f1189fa2e1f4789487d37bbb03b3, type: 3}
  m_AnimationClipSettings:
    serializedVersion: 2
    m_AdditiveReferencePoseClip: {fileID: 0}
    m_AdditiveReferencePoseTime: 0
    m_StartTime: 0
    m_StopTime: 0.4
    m_OrientationOffsetY: 0
    m_Level: 0
    m_CycleOffset: 0
    m_HasAdditiveReferencePose: 0
    m_LoopTime: 1
    m_LoopBlend: 0
    m_LoopBlendOrientation: 0
    m_LoopBlendPositionY: 0
    m_LoopBlendPositionXZ: 0
    m_KeepOriginalOrientation: 0
    m_KeepOriginalPositionY: 1
    m_KeepOriginalPositionXZ: 0
    m_HeightFromFeet: 0
    m_Mirror: 0
  m_EditorCurves: []
  m_EulerEditorCurves: []
  m_HasGenericRootTransform: 0
  m_HasMotionFloatCurves: 0
  m_Events: []
