%YAML 1.1
%TAG !u! tag:unity3d.com,2011:
--- !u!74 &7400000
AnimationClip:
  m_ObjectHideFlags: 0
  m_CorrespondingSourceObject: {fileID: 0}
  m_PrefabInstance: {fileID: 0}
  m_PrefabAsset: {fileID: 0}
  m_Name: attackUpLeft
  serializedVersion: 6
  m_Legacy: 0
  m_Compressed: 0
  m_UseHighQualityCurve: 1
  m_RotationCurves: []
  m_CompressedRotationCurves: []
  m_EulerCurves: []
  m_PositionCurves: []
  m_ScaleCurves: []
  m_FloatCurves: []
  m_PPtrCurves:
  - curve:
    - time: 0
      value: {fileID: 21300000, guid: 1b9419a1dfbdf2947ae44797b66f6afc, type: 3}
    - time: 0.04
      value: {fileID: 21300000, guid: c169a0adc21f3354691fde506b5da648, type: 3}
    - time: 0.08
      value: {fileID: 21300000, guid: d8dbf215738a17b4f8c2495d330f8938, type: 3}
    - time: 0.12
      value: {fileID: 21300000, guid: 50cb02284873ac3428c1a93461fc7943, type: 3}
    - time: 0.16
      value: {fileID: 21300000, guid: fc5b2b852bcc3a44f9dacabf1b268278, type: 3}
    - time: 0.2
      value: {fileID: 21300000, guid: f415b9de851cabf47bf60ede3aabad1e, type: 3}
    - time: 0.24
      value: {fileID: 21300000, guid: beaa900e23d6e7e4ca6bfc2e8778684c, type: 3}
    - time: 0.28
      value: {fileID: 21300000, guid: 9570319ddd651f74b9b4b6d54234f8fc, type: 3}
    - time: 0.32
      value: {fileID: 21300000, guid: 297b710bb7e9fbf4b8c7b79f6cfadb67, type: 3}
    - time: 0.36
      value: {fileID: 21300000, guid: 4b7f3d06ec1c912478eb5b47b7ca91ca, type: 3}
    attribute: m_Sprite
    path: 
    classID: 212
    script: {fileID: 0}
  m_SampleRate: 25
  m_WrapMode: 0
  m_Bounds:
    m_Center: {x: 0, y: 0, z: 0}
    m_Extent: {x: 0, y: 0, z: 0}
  m_ClipBindingConstant:
    genericBindings:
    - serializedVersion: 2
      path: 0
      attribute: 0
      script: {fileID: 0}
      typeID: 212
      customType: 23
      isPPtrCurve: 1
    pptrCurveMapping:
    - {fileID: 21300000, guid: 1b9419a1dfbdf2947ae44797b66f6afc, type: 3}
    - {fileID: 21300000, guid: c169a0adc21f3354691fde506b5da648, type: 3}
    - {fileID: 21300000, guid: d8dbf215738a17b4f8c2495d330f8938, type: 3}
    - {fileID: 21300000, guid: 50cb02284873ac3428c1a93461fc7943, type: 3}
    - {fileID: 21300000, guid: fc5b2b852bcc3a44f9dacabf1b268278, type: 3}
    - {fileID: 21300000, guid: f415b9de851cabf47bf60ede3aabad1e, type: 3}
    - {fileID: 21300000, guid: beaa900e23d6e7e4ca6bfc2e8778684c, type: 3}
    - {fileID: 21300000, guid: 9570319ddd651f74b9b4b6d54234f8fc, type: 3}
    - {fileID: 21300000, guid: 297b710bb7e9fbf4b8c7b79f6cfadb67, type: 3}
    - {fileID: 21300000, guid: 4b7f3d06ec1c912478eb5b47b7ca91ca, type: 3}
  m_AnimationClipSettings:
    serializedVersion: 2
    m_AdditiveReferencePoseClip: {fileID: 0}
    m_AdditiveReferencePoseTime: 0
    m_StartTime: 0
    m_StopTime: 0.4
    m_OrientationOffsetY: 0
    m_Level: 0
    m_CycleOffset: 0
    m_HasAdditiveReferencePose: 0
    m_LoopTime: 1
    m_LoopBlend: 0
    m_LoopBlendOrientation: 0
    m_LoopBlendPositionY: 0
    m_LoopBlendPositionXZ: 0
    m_KeepOriginalOrientation: 0
    m_KeepOriginalPositionY: 1
    m_KeepOriginalPositionXZ: 0
    m_HeightFromFeet: 0
    m_Mirror: 0
  m_EditorCurves: []
  m_EulerEditorCurves: []
  m_HasGenericRootTransform: 0
  m_HasMotionFloatCurves: 0
  m_Events: []
