%YAML 1.1
%TAG !u! tag:unity3d.com,2011:
--- !u!74 &7400000
AnimationClip:
  m_ObjectHideFlags: 0
  m_CorrespondingSourceObject: {fileID: 0}
  m_PrefabInstance: {fileID: 0}
  m_PrefabAsset: {fileID: 0}
  m_Name: walkDownLeft
  serializedVersion: 6
  m_Legacy: 0
  m_Compressed: 0
  m_UseHighQualityCurve: 1
  m_RotationCurves: []
  m_CompressedRotationCurves: []
  m_EulerCurves: []
  m_PositionCurves: []
  m_ScaleCurves: []
  m_FloatCurves: []
  m_PPtrCurves:
  - curve:
    - time: 0
      value: {fileID: 21300000, guid: d2c02ad58fdeab44d8524b213efb8312, type: 3}
    - time: 0.1
      value: {fileID: 21300000, guid: 459311498d39e5146a82082f08cd2453, type: 3}
    - time: 0.2
      value: {fileID: 21300000, guid: f9f9d11e5c0e94043add5c30dd85fce3, type: 3}
    - time: 0.3
      value: {fileID: 21300000, guid: 3cb67670a9189ab4f9bf05f1839ba7db, type: 3}
    - time: 0.4
      value: {fileID: 21300000, guid: f47a79fe794211c45a6bd510e3b440c4, type: 3}
    - time: 0.5
      value: {fileID: 21300000, guid: 48309ea12427ef6499a3acdc16f2e22a, type: 3}
    - time: 0.6
      value: {fileID: 21300000, guid: d67b5b0284aabad4495c9c2f6d0a2381, type: 3}
    - time: 0.7
      value: {fileID: 21300000, guid: 7a965e2bbfce866408103d1df0f3ee9a, type: 3}
    - time: 0.8
      value: {fileID: 21300000, guid: 28bf4c6ccd0e34e499ec1dbbc100812a, type: 3}
    - time: 0.9
      value: {fileID: 21300000, guid: ac3a0cab097ddc04586ad2f310ca56b4, type: 3}
    attribute: m_Sprite
    path: 
    classID: 212
    script: {fileID: 0}
  m_SampleRate: 10
  m_WrapMode: 0
  m_Bounds:
    m_Center: {x: 0, y: 0, z: 0}
    m_Extent: {x: 0, y: 0, z: 0}
  m_ClipBindingConstant:
    genericBindings:
    - serializedVersion: 2
      path: 0
      attribute: 0
      script: {fileID: 0}
      typeID: 212
      customType: 23
      isPPtrCurve: 1
    pptrCurveMapping:
    - {fileID: 21300000, guid: d2c02ad58fdeab44d8524b213efb8312, type: 3}
    - {fileID: 21300000, guid: 459311498d39e5146a82082f08cd2453, type: 3}
    - {fileID: 21300000, guid: f9f9d11e5c0e94043add5c30dd85fce3, type: 3}
    - {fileID: 21300000, guid: 3cb67670a9189ab4f9bf05f1839ba7db, type: 3}
    - {fileID: 21300000, guid: f47a79fe794211c45a6bd510e3b440c4, type: 3}
    - {fileID: 21300000, guid: 48309ea12427ef6499a3acdc16f2e22a, type: 3}
    - {fileID: 21300000, guid: d67b5b0284aabad4495c9c2f6d0a2381, type: 3}
    - {fileID: 21300000, guid: 7a965e2bbfce866408103d1df0f3ee9a, type: 3}
    - {fileID: 21300000, guid: 28bf4c6ccd0e34e499ec1dbbc100812a, type: 3}
    - {fileID: 21300000, guid: ac3a0cab097ddc04586ad2f310ca56b4, type: 3}
  m_AnimationClipSettings:
    serializedVersion: 2
    m_AdditiveReferencePoseClip: {fileID: 0}
    m_AdditiveReferencePoseTime: 0
    m_StartTime: 0
    m_StopTime: 1
    m_OrientationOffsetY: 0
    m_Level: 0
    m_CycleOffset: 0
    m_HasAdditiveReferencePose: 0
    m_LoopTime: 1
    m_LoopBlend: 0
    m_LoopBlendOrientation: 0
    m_LoopBlendPositionY: 0
    m_LoopBlendPositionXZ: 0
    m_KeepOriginalOrientation: 0
    m_KeepOriginalPositionY: 1
    m_KeepOriginalPositionXZ: 0
    m_HeightFromFeet: 0
    m_Mirror: 0
  m_EditorCurves: []
  m_EulerEditorCurves: []
  m_HasGenericRootTransform: 0
  m_HasMotionFloatCurves: 0
  m_Events: []
