%YAML 1.1
%TAG !u! tag:unity3d.com,2011:
--- !u!74 &7400000
AnimationClip:
  m_ObjectHideFlags: 0
  m_CorrespondingSourceObject: {fileID: 0}
  m_PrefabInstance: {fileID: 0}
  m_PrefabAsset: {fileID: 0}
  m_Name: walkDownRight
  serializedVersion: 6
  m_Legacy: 0
  m_Compressed: 0
  m_UseHighQualityCurve: 1
  m_RotationCurves: []
  m_CompressedRotationCurves: []
  m_EulerCurves: []
  m_PositionCurves: []
  m_ScaleCurves: []
  m_FloatCurves: []
  m_PPtrCurves:
  - curve:
    - time: 0
      value: {fileID: 21300000, guid: 19a5f7b14a60fdf438f97e9a8194da1f, type: 3}
    - time: 0.1
      value: {fileID: 21300000, guid: 11310603b8f0c6242993061be4fc127f, type: 3}
    - time: 0.2
      value: {fileID: 21300000, guid: 1306d1881fa502c418cdf4cffeb8c702, type: 3}
    - time: 0.3
      value: {fileID: 21300000, guid: 66c4b5fea4e264e40a13413b2182646c, type: 3}
    - time: 0.4
      value: {fileID: 21300000, guid: bdfb440160bb85343b948f934c639efb, type: 3}
    - time: 0.5
      value: {fileID: 21300000, guid: 974bbb69ce22fdc4081026d0cccd6fa2, type: 3}
    - time: 0.6
      value: {fileID: 21300000, guid: a90f6a38701607048a97172324ae52fe, type: 3}
    - time: 0.7
      value: {fileID: 21300000, guid: 8d890cda61ce1e44ca95d7b5a1e7e61b, type: 3}
    - time: 0.8
      value: {fileID: 21300000, guid: 3e8810b51b08aa04a86b5aa9e076e52d, type: 3}
    - time: 0.9
      value: {fileID: 21300000, guid: 3ba96b68b188c234887f3ac743c6edcf, type: 3}
    attribute: m_Sprite
    path: 
    classID: 212
    script: {fileID: 0}
  m_SampleRate: 10
  m_WrapMode: 0
  m_Bounds:
    m_Center: {x: 0, y: 0, z: 0}
    m_Extent: {x: 0, y: 0, z: 0}
  m_ClipBindingConstant:
    genericBindings:
    - serializedVersion: 2
      path: 0
      attribute: 0
      script: {fileID: 0}
      typeID: 212
      customType: 23
      isPPtrCurve: 1
    pptrCurveMapping:
    - {fileID: 21300000, guid: 19a5f7b14a60fdf438f97e9a8194da1f, type: 3}
    - {fileID: 21300000, guid: 11310603b8f0c6242993061be4fc127f, type: 3}
    - {fileID: 21300000, guid: 1306d1881fa502c418cdf4cffeb8c702, type: 3}
    - {fileID: 21300000, guid: 66c4b5fea4e264e40a13413b2182646c, type: 3}
    - {fileID: 21300000, guid: bdfb440160bb85343b948f934c639efb, type: 3}
    - {fileID: 21300000, guid: 974bbb69ce22fdc4081026d0cccd6fa2, type: 3}
    - {fileID: 21300000, guid: a90f6a38701607048a97172324ae52fe, type: 3}
    - {fileID: 21300000, guid: 8d890cda61ce1e44ca95d7b5a1e7e61b, type: 3}
    - {fileID: 21300000, guid: 3e8810b51b08aa04a86b5aa9e076e52d, type: 3}
    - {fileID: 21300000, guid: 3ba96b68b188c234887f3ac743c6edcf, type: 3}
  m_AnimationClipSettings:
    serializedVersion: 2
    m_AdditiveReferencePoseClip: {fileID: 0}
    m_AdditiveReferencePoseTime: 0
    m_StartTime: 0
    m_StopTime: 1
    m_OrientationOffsetY: 0
    m_Level: 0
    m_CycleOffset: 0
    m_HasAdditiveReferencePose: 0
    m_LoopTime: 1
    m_LoopBlend: 0
    m_LoopBlendOrientation: 0
    m_LoopBlendPositionY: 0
    m_LoopBlendPositionXZ: 0
    m_KeepOriginalOrientation: 0
    m_KeepOriginalPositionY: 1
    m_KeepOriginalPositionXZ: 0
    m_HeightFromFeet: 0
    m_Mirror: 0
  m_EditorCurves: []
  m_EulerEditorCurves: []
  m_HasGenericRootTransform: 0
  m_HasMotionFloatCurves: 0
  m_Events: []
