%YAML 1.1
%TAG !u! tag:unity3d.com,2011:
--- !u!1045 &1
EditorBuildSettings:
  m_ObjectHideFlags: 0
  serializedVersion: 2
  m_Scenes:
  - enabled: 1
    path: Assets/Scenes/Intro.unity
    guid: 1bb9dd782f934be49b2052f872f09702
  - enabled: 1
    path: Assets/Scenes/Dialeg.unity
    guid: 56fb5ef85029d8f4b8a7bb311fa5f893
  - enabled: 1
    path: Assets/Scenes/Lose.unity
    guid: a271bc396202e8445970c7890e05efe2
  - enabled: 1
    path: Assets/Scenes/Win.unity
    guid: 8e7795733b8bdde478c0703bf1f581b0
  - enabled: 1
    path: Assets/Scenes/SampleScene.unity
    guid: 8bb21d64098e26d49957994540c4a7ba
  m_configObjects: {}
