%YAML 1.1
%TAG !u! tag:unity3d.com,2011:
--- !u!1 &4246974986106054790
GameObject:
  m_ObjectHideFlags: 0
  m_CorrespondingSourceObject: {fileID: 0}
  m_PrefabInstance: {fileID: 0}
  m_PrefabAsset: {fileID: 0}
  serializedVersion: 6
  m_Component:
  - component: {fileID: 676037415132271954}
  - component: {fileID: 5139753030476600402}
  - component: {fileID: 5300327389260576843}
  m_Layer: 31
  m_Name: Layer1
  m_TagString: Untagged
  m_Icon: {fileID: 0}
  m_NavMeshLayer: 0
  m_StaticEditorFlags: 0
  m_IsActive: 1
--- !u!4 &676037415132271954
Transform:
  m_ObjectHideFlags: 0
  m_CorrespondingSourceObject: {fileID: 0}
  m_PrefabInstance: {fileID: 0}
  m_PrefabAsset: {fileID: 0}
  m_GameObject: {fileID: 4246974986106054790}
  m_LocalRotation: {x: -0, y: -0, z: -0, w: 1}
  m_LocalPosition: {x: 0, y: 0, z: 0}
  m_LocalScale: {x: 1, y: 1, z: 1}
  m_Children: []
  m_Father: {fileID: 2328192599635328657}
  m_RootOrder: 0
  m_LocalEulerAnglesHint: {x: 0, y: 0, z: 0}
--- !u!1839735485 &5139753030476600402
Tilemap:
  m_ObjectHideFlags: 0
  m_CorrespondingSourceObject: {fileID: 0}
  m_PrefabInstance: {fileID: 0}
  m_PrefabAsset: {fileID: 0}
  m_GameObject: {fileID: 4246974986106054790}
  m_Enabled: 1
  m_Tiles:
  - first: {x: -3, y: -9, z: 0}
    second:
      m_TileIndex: 60
      m_TileSpriteIndex: 60
      m_TileMatrixIndex: 0
      m_TileColorIndex: 0
      m_ObjectToInstantiate: {fileID: 0}
      m_TileFlags: 1
      m_ColliderType: 1
  - first: {x: -2, y: -9, z: 0}
    second:
      m_TileIndex: 61
      m_TileSpriteIndex: 61
      m_TileMatrixIndex: 0
      m_TileColorIndex: 0
      m_ObjectToInstantiate: {fileID: 0}
      m_TileFlags: 1
      m_ColliderType: 1
  - first: {x: -1, y: -9, z: 0}
    second:
      m_TileIndex: 62
      m_TileSpriteIndex: 62
      m_TileMatrixIndex: 0
      m_TileColorIndex: 0
      m_ObjectToInstantiate: {fileID: 0}
      m_TileFlags: 1
      m_ColliderType: 1
  - first: {x: 0, y: -9, z: 0}
    second:
      m_TileIndex: 63
      m_TileSpriteIndex: 63
      m_TileMatrixIndex: 0
      m_TileColorIndex: 0
      m_ObjectToInstantiate: {fileID: 0}
      m_TileFlags: 1
      m_ColliderType: 1
  - first: {x: -3, y: -8, z: 0}
    second:
      m_TileIndex: 55
      m_TileSpriteIndex: 55
      m_TileMatrixIndex: 0
      m_TileColorIndex: 0
      m_ObjectToInstantiate: {fileID: 0}
      m_TileFlags: 1
      m_ColliderType: 1
  - first: {x: -2, y: -8, z: 0}
    second:
      m_TileIndex: 56
      m_TileSpriteIndex: 56
      m_TileMatrixIndex: 0
      m_TileColorIndex: 0
      m_ObjectToInstantiate: {fileID: 0}
      m_TileFlags: 1
      m_ColliderType: 1
  - first: {x: -1, y: -8, z: 0}
    second:
      m_TileIndex: 57
      m_TileSpriteIndex: 57
      m_TileMatrixIndex: 0
      m_TileColorIndex: 0
      m_ObjectToInstantiate: {fileID: 0}
      m_TileFlags: 1
      m_ColliderType: 1
  - first: {x: 0, y: -8, z: 0}
    second:
      m_TileIndex: 58
      m_TileSpriteIndex: 58
      m_TileMatrixIndex: 0
      m_TileColorIndex: 0
      m_ObjectToInstantiate: {fileID: 0}
      m_TileFlags: 1
      m_ColliderType: 1
  - first: {x: 1, y: -8, z: 0}
    second:
      m_TileIndex: 59
      m_TileSpriteIndex: 59
      m_TileMatrixIndex: 0
      m_TileColorIndex: 0
      m_ObjectToInstantiate: {fileID: 0}
      m_TileFlags: 1
      m_ColliderType: 1
  - first: {x: -3, y: -7, z: 0}
    second:
      m_TileIndex: 50
      m_TileSpriteIndex: 50
      m_TileMatrixIndex: 0
      m_TileColorIndex: 0
      m_ObjectToInstantiate: {fileID: 0}
      m_TileFlags: 1
      m_ColliderType: 1
  - first: {x: -2, y: -7, z: 0}
    second:
      m_TileIndex: 51
      m_TileSpriteIndex: 51
      m_TileMatrixIndex: 0
      m_TileColorIndex: 0
      m_ObjectToInstantiate: {fileID: 0}
      m_TileFlags: 1
      m_ColliderType: 1
  - first: {x: -1, y: -7, z: 0}
    second:
      m_TileIndex: 52
      m_TileSpriteIndex: 52
      m_TileMatrixIndex: 0
      m_TileColorIndex: 0
      m_ObjectToInstantiate: {fileID: 0}
      m_TileFlags: 1
      m_ColliderType: 1
  - first: {x: 0, y: -7, z: 0}
    second:
      m_TileIndex: 53
      m_TileSpriteIndex: 53
      m_TileMatrixIndex: 0
      m_TileColorIndex: 0
      m_ObjectToInstantiate: {fileID: 0}
      m_TileFlags: 1
      m_ColliderType: 1
  - first: {x: 1, y: -7, z: 0}
    second:
      m_TileIndex: 54
      m_TileSpriteIndex: 54
      m_TileMatrixIndex: 0
      m_TileColorIndex: 0
      m_ObjectToInstantiate: {fileID: 0}
      m_TileFlags: 1
      m_ColliderType: 1
  - first: {x: 5, y: -7, z: 0}
    second:
      m_TileIndex: 72
      m_TileSpriteIndex: 72
      m_TileMatrixIndex: 0
      m_TileColorIndex: 0
      m_ObjectToInstantiate: {fileID: 0}
      m_TileFlags: 1
      m_ColliderType: 1
  - first: {x: -3, y: -6, z: 0}
    second:
      m_TileIndex: 45
      m_TileSpriteIndex: 45
      m_TileMatrixIndex: 0
      m_TileColorIndex: 0
      m_ObjectToInstantiate: {fileID: 0}
      m_TileFlags: 1
      m_ColliderType: 1
  - first: {x: -2, y: -6, z: 0}
    second:
      m_TileIndex: 46
      m_TileSpriteIndex: 46
      m_TileMatrixIndex: 0
      m_TileColorIndex: 0
      m_ObjectToInstantiate: {fileID: 0}
      m_TileFlags: 1
      m_ColliderType: 1
  - first: {x: -1, y: -6, z: 0}
    second:
      m_TileIndex: 47
      m_TileSpriteIndex: 47
      m_TileMatrixIndex: 0
      m_TileColorIndex: 0
      m_ObjectToInstantiate: {fileID: 0}
      m_TileFlags: 1
      m_ColliderType: 1
  - first: {x: 0, y: -6, z: 0}
    second:
      m_TileIndex: 48
      m_TileSpriteIndex: 48
      m_TileMatrixIndex: 0
      m_TileColorIndex: 0
      m_ObjectToInstantiate: {fileID: 0}
      m_TileFlags: 1
      m_ColliderType: 1
  - first: {x: 1, y: -6, z: 0}
    second:
      m_TileIndex: 49
      m_TileSpriteIndex: 49
      m_TileMatrixIndex: 0
      m_TileColorIndex: 0
      m_ObjectToInstantiate: {fileID: 0}
      m_TileFlags: 1
      m_ColliderType: 1
  - first: {x: 5, y: -6, z: 0}
    second:
      m_TileIndex: 68
      m_TileSpriteIndex: 68
      m_TileMatrixIndex: 0
      m_TileColorIndex: 0
      m_ObjectToInstantiate: {fileID: 0}
      m_TileFlags: 1
      m_ColliderType: 1
  - first: {x: 6, y: -6, z: 0}
    second:
      m_TileIndex: 69
      m_TileSpriteIndex: 69
      m_TileMatrixIndex: 0
      m_TileColorIndex: 0
      m_ObjectToInstantiate: {fileID: 0}
      m_TileFlags: 1
      m_ColliderType: 1
  - first: {x: 7, y: -6, z: 0}
    second:
      m_TileIndex: 70
      m_TileSpriteIndex: 70
      m_TileMatrixIndex: 0
      m_TileColorIndex: 0
      m_ObjectToInstantiate: {fileID: 0}
      m_TileFlags: 1
      m_ColliderType: 1
  - first: {x: 8, y: -6, z: 0}
    second:
      m_TileIndex: 71
      m_TileSpriteIndex: 71
      m_TileMatrixIndex: 0
      m_TileColorIndex: 0
      m_ObjectToInstantiate: {fileID: 0}
      m_TileFlags: 1
      m_ColliderType: 1
  - first: {x: -3, y: -5, z: 0}
    second:
      m_TileIndex: 40
      m_TileSpriteIndex: 40
      m_TileMatrixIndex: 0
      m_TileColorIndex: 0
      m_ObjectToInstantiate: {fileID: 0}
      m_TileFlags: 1
      m_ColliderType: 1
  - first: {x: -2, y: -5, z: 0}
    second:
      m_TileIndex: 41
      m_TileSpriteIndex: 41
      m_TileMatrixIndex: 0
      m_TileColorIndex: 0
      m_ObjectToInstantiate: {fileID: 0}
      m_TileFlags: 1
      m_ColliderType: 1
  - first: {x: -1, y: -5, z: 0}
    second:
      m_TileIndex: 42
      m_TileSpriteIndex: 42
      m_TileMatrixIndex: 0
      m_TileColorIndex: 0
      m_ObjectToInstantiate: {fileID: 0}
      m_TileFlags: 1
      m_ColliderType: 1
  - first: {x: 0, y: -5, z: 0}
    second:
      m_TileIndex: 43
      m_TileSpriteIndex: 43
      m_TileMatrixIndex: 0
      m_TileColorIndex: 0
      m_ObjectToInstantiate: {fileID: 0}
      m_TileFlags: 1
      m_ColliderType: 1
  - first: {x: 1, y: -5, z: 0}
    second:
      m_TileIndex: 44
      m_TileSpriteIndex: 44
      m_TileMatrixIndex: 0
      m_TileColorIndex: 0
      m_ObjectToInstantiate: {fileID: 0}
      m_TileFlags: 1
      m_ColliderType: 1
  - first: {x: 5, y: -5, z: 0}
    second:
      m_TileIndex: 64
      m_TileSpriteIndex: 64
      m_TileMatrixIndex: 0
      m_TileColorIndex: 0
      m_ObjectToInstantiate: {fileID: 0}
      m_TileFlags: 1
      m_ColliderType: 1
  - first: {x: 6, y: -5, z: 0}
    second:
      m_TileIndex: 65
      m_TileSpriteIndex: 65
      m_TileMatrixIndex: 0
      m_TileColorIndex: 0
      m_ObjectToInstantiate: {fileID: 0}
      m_TileFlags: 1
      m_ColliderType: 1
  - first: {x: 7, y: -5, z: 0}
    second:
      m_TileIndex: 66
      m_TileSpriteIndex: 66
      m_TileMatrixIndex: 0
      m_TileColorIndex: 0
      m_ObjectToInstantiate: {fileID: 0}
      m_TileFlags: 1
      m_ColliderType: 1
  - first: {x: 8, y: -5, z: 0}
    second:
      m_TileIndex: 67
      m_TileSpriteIndex: 67
      m_TileMatrixIndex: 0
      m_TileColorIndex: 0
      m_ObjectToInstantiate: {fileID: 0}
      m_TileFlags: 1
      m_ColliderType: 1
  - first: {x: 3, y: -4, z: 0}
    second:
      m_TileIndex: 73
      m_TileSpriteIndex: 1
      m_TileMatrixIndex: 0
      m_TileColorIndex: 0
      m_ObjectToInstantiate: {fileID: 0}
      m_TileFlags: 1
      m_ColliderType: 1
  - first: {x: -3, y: -3, z: 0}
    second:
      m_TileIndex: 35
      m_TileSpriteIndex: 35
      m_TileMatrixIndex: 0
      m_TileColorIndex: 0
      m_ObjectToInstantiate: {fileID: 0}
      m_TileFlags: 1
      m_ColliderType: 1
  - first: {x: -2, y: -3, z: 0}
    second:
      m_TileIndex: 36
      m_TileSpriteIndex: 36
      m_TileMatrixIndex: 0
      m_TileColorIndex: 0
      m_ObjectToInstantiate: {fileID: 0}
      m_TileFlags: 1
      m_ColliderType: 1
  - first: {x: -1, y: -3, z: 0}
    second:
      m_TileIndex: 37
      m_TileSpriteIndex: 37
      m_TileMatrixIndex: 0
      m_TileColorIndex: 0
      m_ObjectToInstantiate: {fileID: 0}
      m_TileFlags: 1
      m_ColliderType: 1
  - first: {x: 0, y: -3, z: 0}
    second:
      m_TileIndex: 38
      m_TileSpriteIndex: 38
      m_TileMatrixIndex: 0
      m_TileColorIndex: 0
      m_ObjectToInstantiate: {fileID: 0}
      m_TileFlags: 1
      m_ColliderType: 1
  - first: {x: 1, y: -3, z: 0}
    second:
      m_TileIndex: 39
      m_TileSpriteIndex: 39
      m_TileMatrixIndex: 0
      m_TileColorIndex: 0
      m_ObjectToInstantiate: {fileID: 0}
      m_TileFlags: 1
      m_ColliderType: 1
  - first: {x: -3, y: -2, z: 0}
    second:
      m_TileIndex: 28
      m_TileSpriteIndex: 28
      m_TileMatrixIndex: 0
      m_TileColorIndex: 0
      m_ObjectToInstantiate: {fileID: 0}
      m_TileFlags: 1
      m_ColliderType: 1
  - first: {x: -2, y: -2, z: 0}
    second:
      m_TileIndex: 29
      m_TileSpriteIndex: 29
      m_TileMatrixIndex: 0
      m_TileColorIndex: 0
      m_ObjectToInstantiate: {fileID: 0}
      m_TileFlags: 1
      m_ColliderType: 1
  - first: {x: -1, y: -2, z: 0}
    second:
      m_TileIndex: 30
      m_TileSpriteIndex: 30
      m_TileMatrixIndex: 0
      m_TileColorIndex: 0
      m_ObjectToInstantiate: {fileID: 0}
      m_TileFlags: 1
      m_ColliderType: 1
  - first: {x: 0, y: -2, z: 0}
    second:
      m_TileIndex: 31
      m_TileSpriteIndex: 31
      m_TileMatrixIndex: 0
      m_TileColorIndex: 0
      m_ObjectToInstantiate: {fileID: 0}
      m_TileFlags: 1
      m_ColliderType: 1
  - first: {x: 1, y: -2, z: 0}
    second:
      m_TileIndex: 32
      m_TileSpriteIndex: 32
      m_TileMatrixIndex: 0
      m_TileColorIndex: 0
      m_ObjectToInstantiate: {fileID: 0}
      m_TileFlags: 1
      m_ColliderType: 1
  - first: {x: 2, y: -2, z: 0}
    second:
      m_TileIndex: 33
      m_TileSpriteIndex: 33
      m_TileMatrixIndex: 0
      m_TileColorIndex: 0
      m_ObjectToInstantiate: {fileID: 0}
      m_TileFlags: 1
      m_ColliderType: 1
  - first: {x: 3, y: -2, z: 0}
    second:
      m_TileIndex: 34
      m_TileSpriteIndex: 34
      m_TileMatrixIndex: 0
      m_TileColorIndex: 0
      m_ObjectToInstantiate: {fileID: 0}
      m_TileFlags: 1
      m_ColliderType: 1
  - first: {x: -3, y: -1, z: 0}
    second:
      m_TileIndex: 21
      m_TileSpriteIndex: 21
      m_TileMatrixIndex: 0
      m_TileColorIndex: 0
      m_ObjectToInstantiate: {fileID: 0}
      m_TileFlags: 1
      m_ColliderType: 1
  - first: {x: -2, y: -1, z: 0}
    second:
      m_TileIndex: 22
      m_TileSpriteIndex: 22
      m_TileMatrixIndex: 0
      m_TileColorIndex: 0
      m_ObjectToInstantiate: {fileID: 0}
      m_TileFlags: 1
      m_ColliderType: 1
  - first: {x: -1, y: -1, z: 0}
    second:
      m_TileIndex: 23
      m_TileSpriteIndex: 23
      m_TileMatrixIndex: 0
      m_TileColorIndex: 0
      m_ObjectToInstantiate: {fileID: 0}
      m_TileFlags: 1
      m_ColliderType: 1
  - first: {x: 0, y: -1, z: 0}
    second:
      m_TileIndex: 24
      m_TileSpriteIndex: 24
      m_TileMatrixIndex: 0
      m_TileColorIndex: 0
      m_ObjectToInstantiate: {fileID: 0}
      m_TileFlags: 1
      m_ColliderType: 1
  - first: {x: 1, y: -1, z: 0}
    second:
      m_TileIndex: 25
      m_TileSpriteIndex: 25
      m_TileMatrixIndex: 0
      m_TileColorIndex: 0
      m_ObjectToInstantiate: {fileID: 0}
      m_TileFlags: 1
      m_ColliderType: 1
  - first: {x: 2, y: -1, z: 0}
    second:
      m_TileIndex: 26
      m_TileSpriteIndex: 26
      m_TileMatrixIndex: 0
      m_TileColorIndex: 0
      m_ObjectToInstantiate: {fileID: 0}
      m_TileFlags: 1
      m_ColliderType: 1
  - first: {x: 3, y: -1, z: 0}
    second:
      m_TileIndex: 27
      m_TileSpriteIndex: 27
      m_TileMatrixIndex: 0
      m_TileColorIndex: 0
      m_ObjectToInstantiate: {fileID: 0}
      m_TileFlags: 1
      m_ColliderType: 1
  - first: {x: -3, y: 0, z: 0}
    second:
      m_TileIndex: 14
      m_TileSpriteIndex: 14
      m_TileMatrixIndex: 0
      m_TileColorIndex: 0
      m_ObjectToInstantiate: {fileID: 0}
      m_TileFlags: 1
      m_ColliderType: 1
  - first: {x: -2, y: 0, z: 0}
    second:
      m_TileIndex: 15
      m_TileSpriteIndex: 15
      m_TileMatrixIndex: 0
      m_TileColorIndex: 0
      m_ObjectToInstantiate: {fileID: 0}
      m_TileFlags: 1
      m_ColliderType: 1
  - first: {x: -1, y: 0, z: 0}
    second:
      m_TileIndex: 16
      m_TileSpriteIndex: 16
      m_TileMatrixIndex: 0
      m_TileColorIndex: 0
      m_ObjectToInstantiate: {fileID: 0}
      m_TileFlags: 1
      m_ColliderType: 1
  - first: {x: 0, y: 0, z: 0}
    second:
      m_TileIndex: 17
      m_TileSpriteIndex: 17
      m_TileMatrixIndex: 0
      m_TileColorIndex: 0
      m_ObjectToInstantiate: {fileID: 0}
      m_TileFlags: 1
      m_ColliderType: 1
  - first: {x: 1, y: 0, z: 0}
    second:
      m_TileIndex: 18
      m_TileSpriteIndex: 18
      m_TileMatrixIndex: 0
      m_TileColorIndex: 0
      m_ObjectToInstantiate: {fileID: 0}
      m_TileFlags: 1
      m_ColliderType: 1
  - first: {x: 2, y: 0, z: 0}
    second:
      m_TileIndex: 19
      m_TileSpriteIndex: 19
      m_TileMatrixIndex: 0
      m_TileColorIndex: 0
      m_ObjectToInstantiate: {fileID: 0}
      m_TileFlags: 1
      m_ColliderType: 1
  - first: {x: 3, y: 0, z: 0}
    second:
      m_TileIndex: 20
      m_TileSpriteIndex: 20
      m_TileMatrixIndex: 0
      m_TileColorIndex: 0
      m_ObjectToInstantiate: {fileID: 0}
      m_TileFlags: 1
      m_ColliderType: 1
  - first: {x: -3, y: 1, z: 0}
    second:
      m_TileIndex: 7
      m_TileSpriteIndex: 7
      m_TileMatrixIndex: 0
      m_TileColorIndex: 0
      m_ObjectToInstantiate: {fileID: 0}
      m_TileFlags: 1
      m_ColliderType: 1
  - first: {x: -2, y: 1, z: 0}
    second:
      m_TileIndex: 8
      m_TileSpriteIndex: 8
      m_TileMatrixIndex: 0
      m_TileColorIndex: 0
      m_ObjectToInstantiate: {fileID: 0}
      m_TileFlags: 1
      m_ColliderType: 1
  - first: {x: -1, y: 1, z: 0}
    second:
      m_TileIndex: 9
      m_TileSpriteIndex: 9
      m_TileMatrixIndex: 0
      m_TileColorIndex: 0
      m_ObjectToInstantiate: {fileID: 0}
      m_TileFlags: 1
      m_ColliderType: 1
  - first: {x: 0, y: 1, z: 0}
    second:
      m_TileIndex: 10
      m_TileSpriteIndex: 10
      m_TileMatrixIndex: 0
      m_TileColorIndex: 0
      m_ObjectToInstantiate: {fileID: 0}
      m_TileFlags: 1
      m_ColliderType: 1
  - first: {x: 1, y: 1, z: 0}
    second:
      m_TileIndex: 11
      m_TileSpriteIndex: 11
      m_TileMatrixIndex: 0
      m_TileColorIndex: 0
      m_ObjectToInstantiate: {fileID: 0}
      m_TileFlags: 1
      m_ColliderType: 1
  - first: {x: 2, y: 1, z: 0}
    second:
      m_TileIndex: 12
      m_TileSpriteIndex: 12
      m_TileMatrixIndex: 0
      m_TileColorIndex: 0
      m_ObjectToInstantiate: {fileID: 0}
      m_TileFlags: 1
      m_ColliderType: 1
  - first: {x: 3, y: 1, z: 0}
    second:
      m_TileIndex: 13
      m_TileSpriteIndex: 13
      m_TileMatrixIndex: 0
      m_TileColorIndex: 0
      m_ObjectToInstantiate: {fileID: 0}
      m_TileFlags: 1
      m_ColliderType: 1
  - first: {x: -3, y: 2, z: 0}
    second:
      m_TileIndex: 0
      m_TileSpriteIndex: 0
      m_TileMatrixIndex: 0
      m_TileColorIndex: 0
      m_ObjectToInstantiate: {fileID: 0}
      m_TileFlags: 1
      m_ColliderType: 1
  - first: {x: -2, y: 2, z: 0}
    second:
      m_TileIndex: 1
      m_TileSpriteIndex: 1
      m_TileMatrixIndex: 0
      m_TileColorIndex: 0
      m_ObjectToInstantiate: {fileID: 0}
      m_TileFlags: 1
      m_ColliderType: 1
  - first: {x: -1, y: 2, z: 0}
    second:
      m_TileIndex: 2
      m_TileSpriteIndex: 2
      m_TileMatrixIndex: 0
      m_TileColorIndex: 0
      m_ObjectToInstantiate: {fileID: 0}
      m_TileFlags: 1
      m_ColliderType: 1
  - first: {x: 0, y: 2, z: 0}
    second:
      m_TileIndex: 3
      m_TileSpriteIndex: 3
      m_TileMatrixIndex: 0
      m_TileColorIndex: 0
      m_ObjectToInstantiate: {fileID: 0}
      m_TileFlags: 1
      m_ColliderType: 1
  - first: {x: 1, y: 2, z: 0}
    second:
      m_TileIndex: 4
      m_TileSpriteIndex: 4
      m_TileMatrixIndex: 0
      m_TileColorIndex: 0
      m_ObjectToInstantiate: {fileID: 0}
      m_TileFlags: 1
      m_ColliderType: 1
  - first: {x: 2, y: 2, z: 0}
    second:
      m_TileIndex: 5
      m_TileSpriteIndex: 5
      m_TileMatrixIndex: 0
      m_TileColorIndex: 0
      m_ObjectToInstantiate: {fileID: 0}
      m_TileFlags: 1
      m_ColliderType: 1
  - first: {x: 3, y: 2, z: 0}
    second:
      m_TileIndex: 6
      m_TileSpriteIndex: 6
      m_TileMatrixIndex: 0
      m_TileColorIndex: 0
      m_ObjectToInstantiate: {fileID: 0}
      m_TileFlags: 1
      m_ColliderType: 1
  - first: {x: -1, y: 7, z: 0}
    second:
      m_TileIndex: 74
      m_TileSpriteIndex: 73
      m_TileMatrixIndex: 0
      m_TileColorIndex: 0
      m_ObjectToInstantiate: {fileID: 0}
      m_TileFlags: 1
      m_ColliderType: 1
  m_AnimatedTiles: {}
  m_TileAssetArray:
  - m_RefCount: 1
    m_Data: {fileID: 11400000, guid: 440743f86de3f694383ed97433e7866a, type: 2}
  - m_RefCount: 1
    m_Data: {fileID: 11400000, guid: 7245faed7407a96459a9c9c8be0f8244, type: 2}
  - m_RefCount: 1
    m_Data: {fileID: 11400000, guid: 7310ad18b88e6504081465a07ac374d0, type: 2}
  - m_RefCount: 1
    m_Data: {fileID: 11400000, guid: 30fb3c2a12e60c548bf2f604b644a519, type: 2}
  - m_RefCount: 1
    m_Data: {fileID: 11400000, guid: d4cfc3143d7b57d4dabd150e9d0d5314, type: 2}
  - m_RefCount: 1
    m_Data: {fileID: 11400000, guid: 79ef0b391ed896b458cf283a48dbdc30, type: 2}
  - m_RefCount: 1
    m_Data: {fileID: 11400000, guid: d0984647faa2e1749ac56ba814358d01, type: 2}
  - m_RefCount: 1
    m_Data: {fileID: 11400000, guid: 1ed09c49836d4ae45a40e7fe046d23ae, type: 2}
  - m_RefCount: 1
    m_Data: {fileID: 11400000, guid: 64f5cb8e7af47734a86dd81bb56df025, type: 2}
  - m_RefCount: 1
    m_Data: {fileID: 11400000, guid: 5311553be339743478f90136c0c5a9b3, type: 2}
  - m_RefCount: 1
    m_Data: {fileID: 11400000, guid: 4220ed16a7a639c4bbb4f3cfcf668ff8, type: 2}
  - m_RefCount: 1
    m_Data: {fileID: 11400000, guid: 7db421effd000c643be824b2adc543e6, type: 2}
  - m_RefCount: 1
    m_Data: {fileID: 11400000, guid: 177ab8b8d0c50364caea9f94957d6297, type: 2}
  - m_RefCount: 1
    m_Data: {fileID: 11400000, guid: bb9d9463eb859ae4aacb49fe75e90cc3, type: 2}
  - m_RefCount: 1
    m_Data: {fileID: 11400000, guid: 0d0830aee8203094eb70384f5c32fcbf, type: 2}
  - m_RefCount: 1
    m_Data: {fileID: 11400000, guid: dd178baa9ef30d04fa2a4d3d77f2e54d, type: 2}
  - m_RefCount: 1
    m_Data: {fileID: 11400000, guid: fed08756b345b504791d2427b06e52cc, type: 2}
  - m_RefCount: 1
    m_Data: {fileID: 11400000, guid: 120a7e05d7c68c34080741c81141b2f8, type: 2}
  - m_RefCount: 1
    m_Data: {fileID: 11400000, guid: 93e32727a59e7974595edfb10ae49445, type: 2}
  - m_RefCount: 1
    m_Data: {fileID: 11400000, guid: 6fb94e752074fcc46aa3833931e0a169, type: 2}
  - m_RefCount: 1
    m_Data: {fileID: 11400000, guid: ac1fb1807be889a49b148f6eb8d9591f, type: 2}
  - m_RefCount: 1
    m_Data: {fileID: 11400000, guid: 0ad763451b60ad04a87b965804637e7e, type: 2}
  - m_RefCount: 1
    m_Data: {fileID: 11400000, guid: c9a4394b9bb9e27428324c1f133ae1be, type: 2}
  - m_RefCount: 1
    m_Data: {fileID: 11400000, guid: 88e4468f927fec04aa752559375f5cdf, type: 2}
  - m_RefCount: 1
    m_Data: {fileID: 11400000, guid: 7c3c7aa3518a2fa4c9e3e1273cc0fcbb, type: 2}
  - m_RefCount: 1
    m_Data: {fileID: 11400000, guid: c997c73f768fa5d4f8fc529e956cecf6, type: 2}
  - m_RefCount: 1
    m_Data: {fileID: 11400000, guid: 6aaf95f84e336144da73012991d3a78d, type: 2}
  - m_RefCount: 1
    m_Data: {fileID: 11400000, guid: 2f381bc4497e5c34cba15ff0bab4e98c, type: 2}
  - m_RefCount: 1
    m_Data: {fileID: 11400000, guid: 7cc1927aa99d58c41a2e734fab0e16b5, type: 2}
  - m_RefCount: 1
    m_Data: {fileID: 11400000, guid: 1fa48f7ce1ac510419d029b2417b85ff, type: 2}
  - m_RefCount: 1
    m_Data: {fileID: 11400000, guid: edb71b404c2ed1f44929478d698ed1f9, type: 2}
  - m_RefCount: 1
    m_Data: {fileID: 11400000, guid: def1da1c64409b24a92d5866a5b3a563, type: 2}
  - m_RefCount: 1
    m_Data: {fileID: 11400000, guid: 7fd7359e8a69ebc4faad0542696b02a2, type: 2}
  - m_RefCount: 1
    m_Data: {fileID: 11400000, guid: 923935738284e994a80f02d086a9b69c, type: 2}
  - m_RefCount: 1
    m_Data: {fileID: 11400000, guid: 26ff55847e001314c8b97a5e276c29f7, type: 2}
  - m_RefCount: 1
    m_Data: {fileID: 11400000, guid: c7ce0b03cb844b942afa8791b8d6c649, type: 2}
  - m_RefCount: 1
    m_Data: {fileID: 11400000, guid: 822f6c84e0d2d9d48a165df32c447f88, type: 2}
  - m_RefCount: 1
    m_Data: {fileID: 11400000, guid: cf8631b5307326c4a98e791f627870b8, type: 2}
  - m_RefCount: 1
    m_Data: {fileID: 11400000, guid: 729421db5059a2245a33f0a46be00659, type: 2}
  - m_RefCount: 1
    m_Data: {fileID: 11400000, guid: 1dacce0f9a2754f48b8ac711e602e222, type: 2}
  - m_RefCount: 1
    m_Data: {fileID: 11400000, guid: 9efe3ce904d55be42ae33020b10eb07f, type: 2}
  - m_RefCount: 1
    m_Data: {fileID: 11400000, guid: 42e996f3c1e71c74f85365efab903420, type: 2}
  - m_RefCount: 1
    m_Data: {fileID: 11400000, guid: 00af7d5bbe78bc54bbb51126febfc650, type: 2}
  - m_RefCount: 1
    m_Data: {fileID: 11400000, guid: c5e34964197e1b841878687e0233c9e9, type: 2}
  - m_RefCount: 1
    m_Data: {fileID: 11400000, guid: 022b19dfd61684445b7a0dffe87761db, type: 2}
  - m_RefCount: 1
    m_Data: {fileID: 11400000, guid: b46a8adb6a373904ea38c4565c5270bb, type: 2}
  - m_RefCount: 1
    m_Data: {fileID: 11400000, guid: 2433b637edcb69b4e8bed1c75125b248, type: 2}
  - m_RefCount: 1
    m_Data: {fileID: 11400000, guid: e576e5d1609270c4ea3c822d9e2490c1, type: 2}
  - m_RefCount: 1
    m_Data: {fileID: 11400000, guid: 5bbd8de8e435e4042a4aa65871b9f050, type: 2}
  - m_RefCount: 1
    m_Data: {fileID: 11400000, guid: 07e92f0964871cc49aa0c7ccd2c141a2, type: 2}
  - m_RefCount: 1
    m_Data: {fileID: 11400000, guid: 6a1ee2da82703cd42a5491c5038f068e, type: 2}
  - m_RefCount: 1
    m_Data: {fileID: 11400000, guid: a6da0d1a7204e0e4db095586cd812383, type: 2}
  - m_RefCount: 1
    m_Data: {fileID: 11400000, guid: 8ac8129d88bd1b246ac45bf5f0c62634, type: 2}
  - m_RefCount: 1
    m_Data: {fileID: 11400000, guid: c50bd4c82ec2106408d4c19231c981ff, type: 2}
  - m_RefCount: 1
    m_Data: {fileID: 11400000, guid: ee5542c075cb67340b243d1a0b49a47e, type: 2}
  - m_RefCount: 1
    m_Data: {fileID: 11400000, guid: 2ba0b4b90ed18f74383612bfe92556e8, type: 2}
  - m_RefCount: 1
    m_Data: {fileID: 11400000, guid: d858a5238b60ebb4e9ca4f799bdf59ae, type: 2}
  - m_RefCount: 1
    m_Data: {fileID: 11400000, guid: 9b335d70f08c65f4182d9c0f0ee0030e, type: 2}
  - m_RefCount: 1
    m_Data: {fileID: 11400000, guid: b38b5a21f40d32c42ac406917bdd4dc8, type: 2}
  - m_RefCount: 1
    m_Data: {fileID: 11400000, guid: 2f4df87244f78af46917fe352216d81a, type: 2}
  - m_RefCount: 1
    m_Data: {fileID: 11400000, guid: 8fb0f417c369b3d4e810818048ae36ee, type: 2}
  - m_RefCount: 1
    m_Data: {fileID: 11400000, guid: 42dc47a82f5ac1f46aca1293c719b553, type: 2}
  - m_RefCount: 1
    m_Data: {fileID: 11400000, guid: e403e3b3f2812994487d2e7e9ca0de1a, type: 2}
  - m_RefCount: 1
    m_Data: {fileID: 11400000, guid: 932d26f0e7a003643a7d8002558f75de, type: 2}
  - m_RefCount: 1
    m_Data: {fileID: 11400000, guid: 0bfda6aa2ce12934fa982d0b226b0bed, type: 2}
  - m_RefCount: 1
    m_Data: {fileID: 11400000, guid: 71f2988a1836a3f4b80eacd6c48f2a74, type: 2}
  - m_RefCount: 1
    m_Data: {fileID: 11400000, guid: 6904673500daac14c8ac888950fbf80c, type: 2}
  - m_RefCount: 1
    m_Data: {fileID: 11400000, guid: 80138c67351ac8844b73bc9c7aa42c3b, type: 2}
  - m_RefCount: 1
    m_Data: {fileID: 11400000, guid: a1e29887900124546aa12b7b2a4a7245, type: 2}
  - m_RefCount: 1
    m_Data: {fileID: 11400000, guid: be8271062384b8b40a9daad25f2f31cb, type: 2}
  - m_RefCount: 1
    m_Data: {fileID: 11400000, guid: efca5e50b012b484d80b2066ef61ec64, type: 2}
  - m_RefCount: 1
    m_Data: {fileID: 11400000, guid: 4c348bd5d6da49a4bb9c561e475cfa2f, type: 2}
  - m_RefCount: 1
    m_Data: {fileID: 11400000, guid: 7c69efb298d2ec844ad0bb0acb996cc2, type: 2}
  - m_RefCount: 1
    m_Data: {fileID: 11400000, guid: 51d946385cf56004e87d07f6b29313d0, type: 2}
  - m_RefCount: 1
    m_Data: {fileID: 11400000, guid: 2019c23d529448f4ab3dd5e4415c864e, type: 2}
  m_TileSpriteArray:
  - m_RefCount: 1
    m_Data: {fileID: 21300000, guid: 27365b9041a3c6c4ca4b0c19ddd06db5, type: 3}
  - m_RefCount: 2
    m_Data: {fileID: 21300000, guid: 2b75fd902ab319940b7c1b84082b56a8, type: 3}
  - m_RefCount: 1
    m_Data: {fileID: 21300000, guid: 3e9255a034fd3664da48ce772402dbe8, type: 3}
  - m_RefCount: 1
    m_Data: {fileID: 21300000, guid: b04e81f0f63a330458473d0ad114e35b, type: 3}
  - m_RefCount: 1
    m_Data: {fileID: 21300000, guid: 6592c3615c323284190cf6cd30a9bb0a, type: 3}
  - m_RefCount: 1
    m_Data: {fileID: 21300000, guid: 54cb5c919e638694289533b24521e4ff, type: 3}
  - m_RefCount: 1
    m_Data: {fileID: 21300000, guid: 2a5b2c523f748d340a64b5e58979283d, type: 3}
  - m_RefCount: 1
    m_Data: {fileID: 21300000, guid: 44b1b472d56a90949b46a92fb5e41304, type: 3}
  - m_RefCount: 1
    m_Data: {fileID: 21300000, guid: 0f21f5e2ac9ef214c8144f059f6b6f87, type: 3}
  - m_RefCount: 1
    m_Data: {fileID: 21300000, guid: 3f884f13430443643bf3ace561cd47c2, type: 3}
  - m_RefCount: 1
    m_Data: {fileID: 21300000, guid: b67a9b539d2538e48b13b7e01821901a, type: 3}
  - m_RefCount: 1
    m_Data: {fileID: 21300000, guid: c5b57c34740a4644e882601e5ab9cb6b, type: 3}
  - m_RefCount: 1
    m_Data: {fileID: 21300000, guid: b3a8b005d0524074e8e3cc833c2155cf, type: 3}
  - m_RefCount: 1
    m_Data: {fileID: 21300000, guid: 5070ce25d964ead41821c5960a1d0a5a, type: 3}
  - m_RefCount: 1
    m_Data: {fileID: 21300000, guid: fed75e65b0dd8a8478eaddc9c740c856, type: 3}
  - m_RefCount: 1
    m_Data: {fileID: 21300000, guid: 40ea3ff5f2c045d4aaecdf43ee3d4215, type: 3}
  - m_RefCount: 1
    m_Data: {fileID: 21300000, guid: 9cae9416d82db184aa28af3c459a3f1d, type: 3}
  - m_RefCount: 1
    m_Data: {fileID: 21300000, guid: 6d5372260b619874b89ee69fdfa530fb, type: 3}
  - m_RefCount: 1
    m_Data: {fileID: 21300000, guid: 56b4c7767ee93544790f327b06289000, type: 3}
  - m_RefCount: 1
    m_Data: {fileID: 21300000, guid: a7eb0527440b385459f457d27505d0fd, type: 3}
  - m_RefCount: 1
    m_Data: {fileID: 21300000, guid: 4ccac5977a876a84f830b5c19235aecd, type: 3}
  - m_RefCount: 1
    m_Data: {fileID: 21300000, guid: c1662897ba692f042a9c48ffee905e06, type: 3}
  - m_RefCount: 1
    m_Data: {fileID: 21300000, guid: ba9450c76dfb1d143a786b09ded94f49, type: 3}
  - m_RefCount: 1
    m_Data: {fileID: 21300000, guid: 958f6538cc9f2ac43a662e19012aaa68, type: 3}
  - m_RefCount: 1
    m_Data: {fileID: 21300000, guid: 29308249b1e46c548a2774aa6eb2fbac, type: 3}
  - m_RefCount: 1
    m_Data: {fileID: 21300000, guid: a2a6cc6920cdce44d8169a6a6888472d, type: 3}
  - m_RefCount: 1
    m_Data: {fileID: 21300000, guid: eb1856a99289cea44847b5be513cb67d, type: 3}
  - m_RefCount: 1
    m_Data: {fileID: 21300000, guid: 0c6f77c99d20d4649a92b17cead223e5, type: 3}
  - m_RefCount: 1
    m_Data: {fileID: 21300000, guid: 3d770a7a74c94bf49821fbc6415e559d, type: 3}
  - m_RefCount: 1
    m_Data: {fileID: 21300000, guid: 8f8d667c410740b4384abae461b6c80c, type: 3}
  - m_RefCount: 1
    m_Data: {fileID: 21300000, guid: 2304709c1269ec444a3c1347779b3c78, type: 3}
  - m_RefCount: 1
    m_Data: {fileID: 21300000, guid: 3876c3bc008786f44b418b66b093cdc5, type: 3}
  - m_RefCount: 1
    m_Data: {fileID: 21300000, guid: 162f0f7df9d78da4b8a3d27b871efec0, type: 3}
  - m_RefCount: 1
    m_Data: {fileID: 21300000, guid: 0912c79dccb66524ca02004900d0f231, type: 3}
  - m_RefCount: 1
    m_Data: {fileID: 21300000, guid: 5a72debd55406b446af12ff70c204b0f, type: 3}
  - m_RefCount: 1
    m_Data: {fileID: 21300000, guid: a023e90f9a527934fad179d09a7c2fdb, type: 3}
  - m_RefCount: 1
    m_Data: {fileID: 21300000, guid: 5e51e14fdd0bcc641bb9b0d916f4bed9, type: 3}
  - m_RefCount: 1
    m_Data: {fileID: 21300000, guid: 9735e28f065d4ba4b995ee70f9d75dc6, type: 3}
  - m_RefCount: 1
    m_Data: {fileID: 21300000, guid: 83b2a1bfe19cde84482c2d4958efb63f, type: 3}
  - m_RefCount: 1
    m_Data: {fileID: 21300000, guid: bdf45cbf3308c7945b39a8d03a621666, type: 3}
  - m_RefCount: 1
    m_Data: {fileID: 21300000, guid: eacecbf0e4a7ade45b8728d3ede5be21, type: 3}
  - m_RefCount: 1
    m_Data: {fileID: 21300000, guid: 0c88c4d103a2221449911e261cafc4ad, type: 3}
  - m_RefCount: 1
    m_Data: {fileID: 21300000, guid: eb1c57b206989254c82b4fd68908714b, type: 3}
  - m_RefCount: 1
    m_Data: {fileID: 21300000, guid: c7f198e2888cc974991ef636f3cbfba3, type: 3}
  - m_RefCount: 1
    m_Data: {fileID: 21300000, guid: 9edd5dd3cff8abd4ca74b954f5c46c7f, type: 3}
  - m_RefCount: 1
    m_Data: {fileID: 21300000, guid: a310c6e34497dc743beca08015828ce1, type: 3}
  - m_RefCount: 1
    m_Data: {fileID: 21300000, guid: a8242725f9d7ae749a39d56dd273d028, type: 3}
  - m_RefCount: 1
    m_Data: {fileID: 21300000, guid: 49ee57350a010304c9da77fb668c697f, type: 3}
  - m_RefCount: 1
    m_Data: {fileID: 21300000, guid: 332d8545c70b1a94eb48c6ec72b7d734, type: 3}
  - m_RefCount: 1
    m_Data: {fileID: 21300000, guid: 1c1ace65ee586bf49b3c4de6ff2c4df4, type: 3}
  - m_RefCount: 1
    m_Data: {fileID: 21300000, guid: 7ee75936c7086274d8f007481e69e689, type: 3}
  - m_RefCount: 1
    m_Data: {fileID: 21300000, guid: d7a0f0c688a993140a95b54cee90a1c8, type: 3}
  - m_RefCount: 1
    m_Data: {fileID: 21300000, guid: 3198f337e92486b499caef58389a5a26, type: 3}
  - m_RefCount: 1
    m_Data: {fileID: 21300000, guid: 184585b7c276a144a91522ee91ba0d16, type: 3}
  - m_RefCount: 1
    m_Data: {fileID: 21300000, guid: 514728d7bf111a74385bf4cb7cdbafda, type: 3}
  - m_RefCount: 1
    m_Data: {fileID: 21300000, guid: 3e4b1a98d7791d7428e75b04f31aaade, type: 3}
  - m_RefCount: 1
    m_Data: {fileID: 21300000, guid: a67100e88d61c3542b9482abe5dd3b2a, type: 3}
  - m_RefCount: 1
    m_Data: {fileID: 21300000, guid: 6de0eb490f748334db22ea6741a85ed2, type: 3}
  - m_RefCount: 1
    m_Data: {fileID: 21300000, guid: c5b72f9a7213e7a49b535451b588538f, type: 3}
  - m_RefCount: 1
    m_Data: {fileID: 21300000, guid: 27774adaad683044991a525872f7c3d1, type: 3}
  - m_RefCount: 1
    m_Data: {fileID: 21300000, guid: 837e23fb908f3504394c152ef60d9a2f, type: 3}
  - m_RefCount: 1
    m_Data: {fileID: 21300000, guid: 2b94b41cbd82da64ab2308f1ba55081e, type: 3}
  - m_RefCount: 1
    m_Data: {fileID: 21300000, guid: 8609b09cc5a058d478f0685d5af921cd, type: 3}
  - m_RefCount: 1
    m_Data: {fileID: 21300000, guid: d436fc4f9821893418a57e252054abee, type: 3}
  - m_RefCount: 1
    m_Data: {fileID: 21300000, guid: 954126d0630418741862ecbc7ca496e0, type: 3}
  - m_RefCount: 1
    m_Data: {fileID: 21300000, guid: caa9ae738896c194ab53091fdbc78dbc, type: 3}
  - m_RefCount: 1
    m_Data: {fileID: 21300000, guid: 9d416004adedfea49b50441e402f00de, type: 3}
  - m_RefCount: 1
    m_Data: {fileID: 21300000, guid: cfc8ae95cc9127b43bf303fa92b677f5, type: 3}
  - m_RefCount: 1
    m_Data: {fileID: 21300000, guid: b181e9b5a0b067346a78888c2ac0a73d, type: 3}
  - m_RefCount: 1
    m_Data: {fileID: 21300000, guid: 48c053b6723c33b449ca69fe5ab6e41e, type: 3}
  - m_RefCount: 1
    m_Data: {fileID: 21300000, guid: 83892b79134a9bb4d8cc8f42e6193aac, type: 3}
  - m_RefCount: 1
    m_Data: {fileID: 21300000, guid: 0a9dc84b117b50b4f9fdb09b80281be4, type: 3}
  - m_RefCount: 1
    m_Data: {fileID: 21300000, guid: c35f9ace7f7dafa4db9b3c948fcf21e2, type: 3}
  - m_RefCount: 1
    m_Data: {fileID: 21300036, guid: 79fdf1525b839bd429762573f8cfb2a7, type: 3}
  m_TileMatrixArray:
  - m_RefCount: 75
    m_Data:
      e00: 1
      e01: 0
      e02: 0
      e03: 0
      e10: 0
      e11: 1
      e12: 0
      e13: 0
      e20: 0
      e21: 0
      e22: 1
      e23: 0
      e30: 0
      e31: 0
      e32: 0
      e33: 1
  m_TileColorArray:
  - m_RefCount: 75
    m_Data: {r: 1, g: 1, b: 1, a: 1}
  m_AnimationFrameRate: 1
  m_Color: {r: 1, g: 1, b: 1, a: 1}
  m_Origin: {x: -3, y: -9, z: 0}
  m_Size: {x: 12, y: 17, z: 1}
  m_TileAnchor: {x: 0.5, y: 0.5, z: 0}
  m_TileOrientation: 0
  m_TileOrientationMatrix:
    e00: 1
    e01: 0
    e02: 0
    e03: 0
    e10: 0
    e11: 1
    e12: 0
    e13: 0
    e20: 0
    e21: 0
    e22: 1
    e23: 0
    e30: 0
    e31: 0
    e32: 0
    e33: 1
--- !u!483693784 &5300327389260576843
TilemapRenderer:
  m_ObjectHideFlags: 0
  m_CorrespondingSourceObject: {fileID: 0}
  m_PrefabInstance: {fileID: 0}
  m_PrefabAsset: {fileID: 0}
  m_GameObject: {fileID: 4246974986106054790}
  m_Enabled: 0
  m_CastShadows: 0
  m_ReceiveShadows: 0
  m_DynamicOccludee: 0
  m_MotionVectors: 1
  m_LightProbeUsage: 0
  m_ReflectionProbeUsage: 0
  m_RenderingLayerMask: 1
  m_RendererPriority: 0
  m_Materials:
  - {fileID: 10754, guid: 0000000000000000f000000000000000, type: 0}
  m_StaticBatchInfo:
    firstSubMesh: 0
    subMeshCount: 0
  m_StaticBatchRoot: {fileID: 0}
  m_ProbeAnchor: {fileID: 0}
  m_LightProbeVolumeOverride: {fileID: 0}
  m_ScaleInLightmap: 1
  m_PreserveUVs: 0
  m_IgnoreNormalsForChartDetection: 0
  m_ImportantGI: 0
  m_StitchLightmapSeams: 0
  m_SelectedEditorRenderState: 0
  m_MinimumChartSize: 4
  m_AutoUVMaxDistance: 0.5
  m_AutoUVMaxAngle: 89
  m_LightmapParameters: {fileID: 0}
  m_SortingLayerID: 0
  m_SortingLayer: 0
  m_SortingOrder: 0
  m_ChunkSize: {x: 32, y: 32, z: 32}
  m_ChunkCullingBounds: {x: 0, y: 0.13999999, z: 0}
  m_MaxChunkCount: 16
  m_MaxFrameAge: 16
  m_SortOrder: 0
  m_Mode: 0
  m_DetectChunkCullingBounds: 0
  m_MaskInteraction: 0
--- !u!1 &5179467255751853313
GameObject:
  m_ObjectHideFlags: 0
  m_CorrespondingSourceObject: {fileID: 0}
  m_PrefabInstance: {fileID: 0}
  m_PrefabAsset: {fileID: 0}
  serializedVersion: 6
  m_Component:
  - component: {fileID: 2328192599635328657}
  - component: {fileID: 5407491866722755102}
  m_Layer: 31
  m_Name: Palet
  m_TagString: Untagged
  m_Icon: {fileID: 0}
  m_NavMeshLayer: 0
  m_StaticEditorFlags: 0
  m_IsActive: 1
--- !u!4 &2328192599635328657
Transform:
  m_ObjectHideFlags: 0
  m_CorrespondingSourceObject: {fileID: 0}
  m_PrefabInstance: {fileID: 0}
  m_PrefabAsset: {fileID: 0}
  m_GameObject: {fileID: 5179467255751853313}
  m_LocalRotation: {x: 0, y: 0, z: 0, w: 1}
  m_LocalPosition: {x: 0, y: 0, z: 0}
  m_LocalScale: {x: 1, y: 1, z: 1}
  m_Children:
  - {fileID: 676037415132271954}
  m_Father: {fileID: 0}
  m_RootOrder: 0
  m_LocalEulerAnglesHint: {x: 0, y: 0, z: 0}
--- !u!156049354 &5407491866722755102
Grid:
  m_ObjectHideFlags: 0
  m_CorrespondingSourceObject: {fileID: 0}
  m_PrefabInstance: {fileID: 0}
  m_PrefabAsset: {fileID: 0}
  m_GameObject: {fileID: 5179467255751853313}
  m_Enabled: 1
  m_CellSize: {x: 0.64, y: 0.64, z: 0}
  m_CellGap: {x: 0, y: 0, z: 0}
  m_CellLayout: 0
  m_CellSwizzle: 0
--- !u!114 &114205566403614408
MonoBehaviour:
  m_ObjectHideFlags: 0
  m_CorrespondingSourceObject: {fileID: 0}
  m_PrefabInstance: {fileID: 0}
  m_PrefabAsset: {fileID: 0}
  m_GameObject: {fileID: 0}
  m_Enabled: 1
  m_EditorHideFlags: 0
  m_Script: {fileID: 12395, guid: 0000000000000000e000000000000000, type: 0}
  m_Name: Palette Settings
  m_EditorClassIdentifier: 
  cellSizing: 0
